<svg width="60" height="64" viewBox="0 0 60 64" fill="none" xmlns="http://www.w3.org/2000/svg">
<g clip-path="url(#clip0)">
<path d="M18.7239 25.7947H41.3646C41.3646 17.7567 37.8572 12.2766 28.294 12.2766C16.9925 12.2766 5.49958 19.6338 0.0358124 28.8074C1.72821 12.8848 13.1449 0.0295715 30.3331 0.0295715C45.0653 0.0295715 59.0234 11.2935 59.0234 30.0177V37.1366H18.8445C18.8445 46.8257 27.2969 50.6647 36.1493 50.6647C46.9223 50.6647 53.5938 45.8238 53.5938 45.8238V59.3957C53.5938 59.3957 46.0625 63.9705 34.0581 63.9705C18.4581 63.9705 7.44652 52.7906 7.44652 38.8882C7.44652 27.9759 14.0472 19.2635 23.19 15.6684C18.7395 20.5561 18.7238 25.7947 18.7238 25.7947H18.7239Z" fill="#3277BC"/>
</g>
<defs>
<clipPath id="clip0">
<rect width="59.0592" height="64" fill="white"/>
</clipPath>
</defs>
</svg>
