<svg width="64" height="64" viewBox="0 0 64 64" fill="none" xmlns="http://www.w3.org/2000/svg">
<path d="M63.9998 55.5992C63.9998 53.9504 63.5109 52.3386 62.5949 50.9676C61.6789 49.5967 60.377 48.5281 58.8537 47.8972C57.3305 47.2662 55.6544 47.1011 54.0373 47.4228C52.4203 47.7444 50.9349 48.5384 49.7691 49.7043C48.6032 50.8702 47.8093 52.3557 47.4876 53.9728C47.166 55.59 47.3311 57.2662 47.962 58.7895C48.593 60.3128 49.6614 61.6149 51.0323 62.5309C52.4032 63.4469 54.0149 63.9359 55.6636 63.9359C56.7605 63.9435 57.8479 63.733 58.8627 63.3167C59.8775 62.9005 60.7995 62.2867 61.5751 61.511C62.3507 60.7354 62.9644 59.8133 63.3807 58.7985C63.7969 57.7836 64.0074 56.6961 63.9998 55.5992V55.5992Z" fill="#F78D1E"/>
<path d="M55.5994 16.6733C54.5026 16.6809 53.4152 16.4704 52.4003 16.0542C51.3855 15.6379 50.4635 15.0241 49.6879 14.2485C48.9123 13.4728 48.2986 12.5508 47.8823 11.5359C47.4661 10.521 47.2556 9.43355 47.2632 8.33665C47.2632 6.12564 48.1415 4.00517 49.7048 2.44175C51.2682 0.878323 53.3885 0 55.5994 0C57.8103 0 59.9306 0.878323 61.494 2.44175C63.0573 4.00517 63.9356 6.12564 63.9356 8.33665C63.9432 9.43355 63.7327 10.521 63.3165 11.5359C62.9002 12.5508 62.2865 13.4728 61.5109 14.2485C60.7353 15.0241 59.8133 15.6379 58.7985 16.0542C57.7837 16.4704 56.6963 16.6809 55.5994 16.6733V16.6733Z" fill="#F78D1E"/>
<path d="M40.3666 55.599C40.375 56.6992 40.1657 57.7902 39.7505 58.8091C39.3354 59.8279 38.7227 60.7545 37.9478 61.5355C37.1728 62.3164 36.251 62.9363 35.2354 63.3592C34.2198 63.7822 33.1305 64 32.0304 64C30.9303 64 29.841 63.7822 28.8254 63.3592C27.8098 62.9363 26.888 62.3164 26.113 61.5355C25.3381 60.7545 24.7254 59.8279 24.3103 58.8091C23.8951 57.7902 23.6858 56.6992 23.6942 55.599C23.6894 51.5441 22.0766 47.6567 19.2095 44.7894C16.3424 41.9222 12.4552 40.3093 8.40049 40.3045C7.30038 40.3129 6.20947 40.1035 5.19066 39.6884C4.17185 39.2732 3.24528 38.6605 2.46438 37.8855C1.68347 37.1105 1.06368 36.1887 0.640716 35.173C0.217756 34.1574 0 33.068 0 31.9678C0 30.8676 0.217756 29.7783 0.640716 28.7626C1.06368 27.747 1.68347 26.8251 2.46438 26.0501C3.24528 25.2752 4.17185 24.6624 5.19066 24.2473C6.20947 23.8321 7.30038 23.6227 8.40049 23.6312C12.4552 23.6264 16.3424 22.0135 19.2095 19.1462C22.0766 16.279 23.6894 12.3915 23.6942 8.33661C23.6942 6.68778 24.1831 5.07598 25.0991 3.70503C26.0151 2.33408 27.3171 1.26556 28.8403 0.634582C30.3635 0.00360688 32.0397 -0.161481 33.6567 0.160195C35.2738 0.481871 36.7592 1.27586 37.925 2.44177C39.0908 3.60767 39.8848 5.09312 40.2064 6.71027C40.5281 8.32742 40.363 10.0036 39.732 11.527C39.1011 13.0503 38.0326 14.3523 36.6617 15.2683C35.2909 16.1844 33.6791 16.6733 32.0304 16.6733C27.9785 16.6798 24.0948 18.294 21.2319 21.1616C18.3691 24.0292 16.7611 27.9157 16.7611 31.9678C16.7611 36.02 18.3691 39.9065 21.2319 42.7741C24.0948 45.6417 27.9785 47.2559 32.0304 47.2624C34.2382 47.2725 36.3527 48.154 37.9138 49.7153C39.475 51.2765 40.3565 53.3911 40.3666 55.599V55.599Z" fill="#F78D1E"/>
</svg>
