<svg width="64" height="45" viewBox="0 0 64 45" fill="none" xmlns="http://www.w3.org/2000/svg">
<g clip-path="url(#clip0)">
<path fill-rule="evenodd" clip-rule="evenodd" d="M43.7487 5.11768C43.4462 5.11768 43.2329 5.15386 43.0177 5.20719V5.24299H43.0528C43.1967 5.52752 43.4462 5.72482 43.6234 5.97431C43.7669 6.25959 43.8915 6.54374 44.034 6.82903C44.0519 6.81189 44.069 6.79323 44.069 6.79323C44.32 6.61573 44.4446 6.33044 44.4446 5.90194C44.3371 5.77662 44.32 5.65283 44.2305 5.52752C44.1238 5.34926 43.8915 5.26051 43.7487 5.11768Z" fill="#5D87A1"/>
<path d="M15.387 40.3062H12.9176C12.8304 36.1384 12.5901 32.219 12.1962 28.5472H12.1745L8.4147 40.3062H6.53423L2.79766 28.5472H2.77557C2.49866 32.0735 2.32421 35.9929 2.25146 40.3062H0C0.145501 35.0605 0.509635 30.1424 1.0924 25.5522H4.15288L7.71576 36.3932H7.73785L11.3224 25.5522H14.2507C14.8922 30.9286 15.2708 35.8474 15.387 40.3062Z" fill="#00758F"/>
<path d="M26.0973 29.421C25.0917 34.8769 23.7655 38.842 22.1193 41.3159C20.8364 43.2219 19.4309 44.1749 17.9009 44.1749C17.4929 44.1749 16.9898 44.0519 16.3929 43.8077V42.4925C16.6847 42.5351 17.0267 42.558 17.4202 42.558C18.134 42.558 18.7095 42.3607 19.1471 41.9668C19.6713 41.4869 19.9333 40.9476 19.9333 40.35C19.9333 39.9416 19.7288 39.104 19.3216 37.8368L16.6115 29.421H19.0374L20.9823 35.7149C21.4192 37.144 21.6016 38.1415 21.5289 38.7102C22.5927 35.8687 23.3358 32.7721 23.7586 29.4206H26.0973V29.421Z" fill="#00758F"/>
<path d="M58.9699 40.3062H51.9539V25.5519H54.315V38.4912H58.9699V40.3062Z" fill="#F29111"/>
<path fill-rule="evenodd" clip-rule="evenodd" d="M50.1183 40.6619L47.4064 39.3246C47.6478 39.1262 47.8771 38.9129 48.0847 38.6657C49.2358 37.312 49.8121 35.3085 49.8121 32.6559C49.8121 27.7752 47.8962 25.3329 44.0636 25.3329C42.1839 25.3329 40.7194 25.9518 39.67 27.1916C38.5186 28.5469 37.9435 30.5427 37.9435 33.1804C37.9435 35.7743 38.4531 37.6769 39.4731 38.8855C40.4059 39.9779 41.8122 40.5248 43.6923 40.5248C44.3943 40.5248 45.0383 40.4384 45.6238 40.2654L49.155 42.3207L50.1183 40.6619ZM41.3319 37.3546C40.7343 36.3933 40.4353 34.8499 40.4353 32.7218C40.4353 29.0062 41.565 27.1475 43.8233 27.1475C45.0041 27.1475 45.8706 27.592 46.4248 28.4802C47.0217 29.4423 47.321 30.9724 47.321 33.0707C47.321 36.8157 46.1913 38.6889 43.933 38.6889C42.7522 38.6889 41.8853 38.2452 41.3319 37.3546Z" fill="#F29111"/>
<path d="M36.9147 36.2165C36.9147 37.4677 36.4549 38.4946 35.5385 39.2987C34.6213 40.0989 33.3891 40.5 31.8461 40.5C30.4033 40.5 29.0043 40.0384 27.6494 39.1223L28.2832 37.8551C29.4492 38.4379 30.5042 38.7289 31.4515 38.7289C32.3401 38.7289 33.0353 38.5312 33.5384 38.1404C34.0405 37.7469 34.3414 37.1981 34.3414 36.5018C34.3414 35.6253 33.7304 34.8765 32.6094 34.2488C31.5742 33.6809 29.5063 32.4952 29.5063 32.4952C28.3857 31.6778 27.8239 30.8006 27.8239 29.3555C27.8239 28.1602 28.2429 27.1943 29.0797 26.4591C29.9184 25.7225 31.0005 25.3546 32.3257 25.3546C33.6954 25.3546 34.9405 25.7202 36.0626 26.4485L35.4928 27.7146C34.5329 27.3078 33.5864 27.1036 32.6532 27.1036C31.8964 27.1036 31.3125 27.2857 30.9057 27.6513C30.4966 28.014 30.2441 28.4805 30.2441 29.0492C30.2441 29.923 30.8684 30.681 32.0206 31.3213C33.0688 31.8895 35.1873 33.0981 35.1873 33.0981C36.3403 33.914 36.9147 34.7836 36.9147 36.2165Z" fill="#F29111"/>
<path fill-rule="evenodd" clip-rule="evenodd" d="M61.9325 20.6098C60.5057 20.574 59.4011 20.7164 58.474 21.1091C58.2066 21.2158 57.7796 21.2158 57.7427 21.5548C57.8863 21.6972 57.9034 21.9284 58.0291 22.1257C58.2428 22.4822 58.6161 22.9625 58.9558 23.2128C59.3299 23.4981 59.7047 23.7822 60.0974 24.0317C60.7917 24.4614 61.5767 24.7097 62.2528 25.1378C62.6463 25.3869 63.0375 25.7076 63.4309 25.9758C63.6263 26.1182 63.7501 26.3502 64.0004 26.4386V26.3845C63.8751 26.2245 63.8396 25.9929 63.7158 25.8135C63.5376 25.6364 63.3589 25.4749 63.1807 25.2978C62.6634 24.6027 62.0209 23.9971 61.3273 23.4977C60.7563 23.1046 59.5077 22.5695 59.2769 21.912C59.2769 21.912 59.2583 21.893 59.2407 21.8755C59.6327 21.8393 60.0974 21.6965 60.471 21.5883C61.0763 21.4283 61.6289 21.4645 62.2528 21.3045C62.5385 21.2329 62.8238 21.143 63.1102 21.0554V20.8939C62.7876 20.5736 62.5572 20.1451 62.2182 19.8423C61.3097 19.058 60.3103 18.2924 59.2765 17.6495C58.7231 17.2926 58.0101 17.0621 57.4216 16.7582C57.2087 16.6511 56.8525 16.5982 56.7272 16.4188C56.4061 16.0269 56.2275 15.5104 55.9959 15.0461C55.4798 14.0668 54.9793 12.9797 54.5344 11.9441C54.2137 11.2493 54.0175 10.5546 53.6252 9.91238C51.7882 6.88123 49.7923 5.04608 46.7261 3.24522C46.0664 2.87004 45.2821 2.71006 44.4449 2.5139C43.9985 2.49524 43.5533 2.46058 43.1076 2.44306C42.8219 2.31774 42.5363 1.97875 42.2872 1.81839C41.2706 1.17697 38.6512 -0.213295 37.9019 1.62261C37.4205 2.78205 38.615 3.92245 39.0252 4.51093C39.328 4.92039 39.7207 5.3847 39.9336 5.84748C40.0586 6.15067 40.0944 6.47215 40.2197 6.79248C40.5046 7.57674 40.7716 8.45051 41.1468 9.18182C41.3426 9.55624 41.5559 9.94894 41.8053 10.286C41.9493 10.4833 42.198 10.5713 42.2517 10.8932C42.003 11.2493 41.9836 11.7841 41.8411 12.2301C41.1997 14.2447 41.4492 16.7403 42.3584 18.2197C42.6429 18.6653 43.3209 19.6461 44.2305 19.2709C45.0323 18.9506 44.8544 17.9344 45.086 17.0435C45.1393 16.8283 45.1035 16.6866 45.2101 16.5441V16.5803C45.4592 17.0789 45.7099 17.5588 45.9415 18.0597C46.4945 18.9323 47.4566 19.8419 48.2596 20.4475C48.6862 20.7697 49.0252 21.3213 49.5599 21.5182V21.4641H49.5245C49.4175 21.3041 49.2575 21.2325 49.1147 21.108C48.7936 20.7869 48.4382 20.3946 48.1872 20.038C47.4387 19.0401 46.7783 17.9344 46.1913 16.7932C45.9053 16.2394 45.6566 15.6338 45.4242 15.0815C45.3176 14.8686 45.3176 14.5467 45.1389 14.4401C44.8708 14.8316 44.48 15.171 44.2838 15.6509C43.9448 16.4184 43.9098 17.363 43.7841 18.3438C43.7128 18.3625 43.7487 18.3438 43.7129 18.3793C43.143 18.2368 42.9469 17.6487 42.7324 17.1509C42.198 15.8836 42.1078 13.8512 42.5721 12.3897C42.6962 12.0161 43.2325 10.8395 43.0177 10.483C42.9103 10.1428 42.5538 9.94856 42.3584 9.68003C42.1272 9.34142 41.8758 8.91444 41.717 8.53926C41.2888 7.54131 41.074 6.43558 40.612 5.43764C40.3979 4.97333 40.0228 4.49188 39.7207 4.0649C39.381 3.58345 39.0073 3.24484 38.7395 2.67502C38.6512 2.47848 38.5258 2.15739 38.6679 1.94409C38.7033 1.80125 38.7753 1.74754 38.9182 1.71136C39.1486 1.51558 39.8091 1.76468 40.0403 1.87172C40.7 2.13834 41.253 2.38935 41.805 2.76301C42.0548 2.94165 42.3222 3.28026 42.6425 3.37015H43.0173C43.5875 3.49394 44.2301 3.40481 44.7653 3.56593C45.7095 3.86874 46.565 4.31438 47.3317 4.79583C49.6662 6.27561 51.592 8.37966 52.8928 10.8928C53.1068 11.3023 53.1971 11.6771 53.3925 12.104C53.7669 12.9793 54.2308 13.8706 54.6045 14.7253C54.9785 15.5633 55.3362 16.418 55.8713 17.1143C56.138 17.488 57.2083 17.6841 57.6893 17.8807C58.0451 18.0406 58.5985 18.1835 58.9193 18.3793C59.5256 18.7529 60.1305 19.1814 60.7018 19.5924C60.9871 19.8072 61.8788 20.2525 61.9325 20.6098Z" fill="#00758F"/>
<path d="M63.6317 40.3046H64.0004V38.4969H63.4462L62.9945 39.7291L62.5031 38.4969H61.9687V40.3046H62.3176V38.9292H62.3378L62.8524 40.3046H63.1182L63.6321 38.9292V40.3046H63.6317ZM60.655 40.3046H61.0458V38.8039H61.5581V38.4969H60.1229V38.8039H60.6546V40.3046H60.655Z" fill="#F29111"/>
</g>
<defs>
<clipPath id="clip0">
<rect width="64" height="44.1745" fill="white"/>
</clipPath>
</defs>
</svg>
